   -9.64716e+03
   -9.64920e+03
   -9.64908e+03
   -9.65239e+03
   -9.65609e+03
   -9.65746e+03
   -9.66349e+03
   -9.66161e+03
   -9.66520e+03
   -9.66659e+03
   -9.66058e+03
   -9.67732e+03
   -9.67866e+03
   -9.67138e+03
   -9.66931e+03
   -9.67120e+03
   -9.67331e+03
   -9.66920e+03
   -9.67243e+03
   -9.67313e+03
   -9.68517e+03
   -9.68103e+03
   -9.68139e+03
   -9.67751e+03
   -9.67433e+03
   -9.68171e+03
   -9.67721e+03
   -9.68905e+03
   -9.68593e+03
   -9.69097e+03
   -9.68793e+03
   -9.68550e+03
   -9.68363e+03
   -9.69712e+03
   -9.69857e+03
   -9.69679e+03
   -9.69116e+03
   -9.69385e+03
   -9.69743e+03
   -9.69508e+03
   -9.69561e+03
   -9.70718e+03
   -9.70629e+03
   -9.70407e+03
   -9.71416e+03
   -9.71411e+03
   -9.70671e+03
   -9.70563e+03
   -9.70607e+03
   -9.70609e+03
   -9.71054e+03
   -9.70580e+03
   -9.70683e+03
   -9.71787e+03
   -9.70731e+03
   -9.70784e+03
   -9.70868e+03
   -9.70792e+03
   -9.71334e+03
   -9.70960e+03
   -9.70465e+03
   -9.70631e+03
   -9.70542e+03
   -9.70648e+03
   -9.71049e+03
   -9.70608e+03
   -9.70515e+03
   -9.70655e+03
   -9.70738e+03
   -9.71349e+03
   -9.71300e+03
   -9.70577e+03
   -9.71158e+03
   -9.71144e+03
   -9.70495e+03
   -9.70373e+03
   -9.70390e+03
   -9.70360e+03
   -9.70938e+03
   -9.70551e+03
   -9.70526e+03
   -9.71125e+03
   -9.71201e+03
   -9.71176e+03
   -9.70613e+03
   -9.70403e+03
   -9.70110e+03
   -9.70350e+03
   -9.70348e+03
   -9.70903e+03
   -9.71298e+03
   -9.70711e+03
   -9.70148e+03
   -9.70668e+03
   -9.69920e+03
   -9.70299e+03
   -9.70141e+03
   -9.69686e+03
   -9.69701e+03
   -9.69542e+03
   -9.70331e+03
   -9.69967e+03
   -9.70082e+03
   -9.69868e+03
   -9.70451e+03
   -9.69969e+03
   -9.69994e+03
   -9.69832e+03
   -9.70298e+03
   -9.70286e+03
   -9.70015e+03
   -9.70034e+03
   -9.69693e+03
   -9.70239e+03
   -9.69928e+03
   -9.70196e+03
   -9.70512e+03
   -9.70187e+03
   -9.70292e+03
   -9.71269e+03
   -9.71189e+03
   -9.70831e+03
   -9.70994e+03
   -9.71408e+03
   -9.71224e+03
   -9.71623e+03
   -9.71342e+03
   -9.71687e+03
   -9.71408e+03
   -9.70989e+03
   -9.71660e+03
   -9.71413e+03
   -9.71601e+03
   -9.71323e+03
   -9.70682e+03
   -9.70750e+03
   -9.70099e+03
   -9.70401e+03
   -9.70460e+03
   -9.70549e+03
   -9.71478e+03
   -9.70951e+03
   -9.71586e+03
   -9.70768e+03
   -9.71041e+03
   -9.71176e+03
   -9.70994e+03
   -9.72167e+03
   -9.72413e+03
   -9.72458e+03
   -9.71843e+03
   -9.71346e+03
   -9.71934e+03
   -9.72238e+03
   -9.71593e+03
   -9.70971e+03
   -9.71163e+03
   -9.71797e+03
   -9.71412e+03
   -9.71019e+03
   -9.70343e+03
   -9.70523e+03
   -9.71554e+03
   -9.70911e+03
   -9.71600e+03
   -9.71269e+03
   -9.71769e+03
   -9.71736e+03
   -9.72586e+03
   -9.72343e+03
   -9.72660e+03
   -9.72308e+03
   -9.72515e+03
   -9.72355e+03
   -9.72557e+03
   -9.72223e+03
   -9.72465e+03
   -9.72158e+03
   -9.72036e+03
   -9.71961e+03
   -9.72060e+03
   -9.72372e+03
   -9.73205e+03
   -9.72728e+03
   -9.72910e+03
   -9.72488e+03
   -9.71978e+03
   -9.72324e+03
   -9.72785e+03
   -9.73707e+03
   -9.73214e+03
   -9.72829e+03
   -9.72981e+03
   -9.73093e+03
   -9.73185e+03
   -9.72314e+03
   -9.72623e+03
   -9.72818e+03
   -9.72294e+03
   -9.72089e+03
   -9.73226e+03
   -9.72117e+03
   -9.72189e+03
   -9.72164e+03
   -9.71976e+03
   -9.71527e+03
   -9.72307e+03
   -9.71985e+03
   -9.72481e+03
   -9.73200e+03
   -9.72544e+03
   -9.72231e+03
   -9.71899e+03
   -9.71618e+03
   -9.72354e+03
   -9.71851e+03
   -9.71871e+03
   -9.71850e+03
   -9.71491e+03
   -9.72172e+03
   -9.72309e+03
   -9.72677e+03
   -9.72288e+03
   -9.72047e+03
   -9.71551e+03
   -9.71792e+03
   -9.71920e+03
   -9.72507e+03
   -9.71807e+03
   -9.72460e+03
   -9.72107e+03
   -9.72493e+03
   -9.71396e+03
   -9.71546e+03
   -9.71430e+03
   -9.71168e+03
   -9.71681e+03
   -9.71541e+03
   -9.72311e+03
   -9.71680e+03
   -9.71535e+03
   -9.72011e+03
   -9.71641e+03
   -9.71523e+03
   -9.72416e+03
   -9.72734e+03
   -9.72152e+03
   -9.71540e+03
   -9.71317e+03
   -9.71365e+03
   -9.70931e+03
   -9.70988e+03
   -9.71032e+03
   -9.71277e+03
   -9.70982e+03
   -9.71281e+03
   -9.71475e+03
   -9.71776e+03
   -9.71693e+03
   -9.71693e+03
   -9.71496e+03
   -9.70717e+03
   -9.70594e+03
   -9.70759e+03
   -9.71138e+03
   -9.70908e+03
   -9.71509e+03
   -9.71474e+03
   -9.71091e+03
   -9.71436e+03
   -9.72526e+03
   -9.72169e+03
   -9.72441e+03
   -9.72350e+03
   -9.71760e+03
   -9.71233e+03
   -9.71717e+03
   -9.72345e+03
   -9.71944e+03
   -9.71519e+03
   -9.71367e+03
   -9.71633e+03
   -9.71835e+03
   -9.71815e+03
   -9.71549e+03
   -9.71361e+03
   -9.71205e+03
   -9.70449e+03
   -9.71136e+03
   -9.70980e+03
   -9.71786e+03
   -9.72797e+03
   -9.71266e+03
   -9.71577e+03
   -9.71842e+03
   -9.71436e+03
   -9.71405e+03
   -9.71485e+03
   -9.71851e+03
   -9.72466e+03
   -9.71624e+03
   -9.71195e+03
   -9.71604e+03
   -9.71280e+03
   -9.70933e+03
   -9.70865e+03
   -9.70440e+03
   -9.70745e+03
   -9.71800e+03
   -9.71972e+03
   -9.71906e+03
   -9.71927e+03
   -9.71271e+03
   -9.71545e+03
   -9.72171e+03
   -9.71735e+03
   -9.71776e+03
   -9.72192e+03
   -9.71900e+03
   -9.71645e+03
   -9.71729e+03
   -9.71995e+03
   -9.71657e+03
   -9.71627e+03
   -9.71299e+03
   -9.72753e+03
   -9.72907e+03
   -9.71734e+03
   -9.71304e+03
   -9.71754e+03
   -9.72285e+03
   -9.71897e+03
   -9.72412e+03
   -9.73149e+03
   -9.72637e+03
   -9.72918e+03
   -9.72092e+03
   -9.71756e+03
   -9.72237e+03
   -9.72439e+03
   -9.72406e+03
   -9.73073e+03
   -9.72475e+03
   -9.72791e+03
   -9.72009e+03
   -9.72195e+03
   -9.72337e+03
   -9.72809e+03
   -9.72297e+03
   -9.72054e+03
   -9.71705e+03
   -9.71717e+03
   -9.72152e+03
   -9.71980e+03
   -9.70885e+03
   -9.71305e+03
   -9.70769e+03
   -9.71483e+03
   -9.70885e+03
   -9.71173e+03
   -9.71612e+03
   -9.71348e+03
   -9.71535e+03
   -9.71759e+03
   -9.71155e+03
   -9.71892e+03
   -9.71750e+03
   -9.71840e+03
   -9.71660e+03
   -9.72259e+03
   -9.72497e+03
   -9.71765e+03
   -9.71273e+03
   -9.71793e+03
   -9.72121e+03
   -9.71990e+03
   -9.71563e+03
   -9.73015e+03
   -9.72821e+03
   -9.72977e+03
   -9.72794e+03
   -9.72834e+03
   -9.72384e+03
   -9.72136e+03
   -9.71815e+03
   -9.72312e+03
   -9.72626e+03
   -9.72077e+03
   -9.72313e+03
   -9.72549e+03
   -9.72097e+03
   -9.72009e+03
   -9.72159e+03
   -9.71631e+03
   -9.71603e+03
   -9.71431e+03
   -9.71870e+03
   -9.72269e+03
   -9.71113e+03
   -9.71506e+03
   -9.71620e+03
   -9.71737e+03
   -9.71475e+03
   -9.71897e+03
   -9.71821e+03
   -9.72251e+03
   -9.72137e+03
   -9.72052e+03
   -9.71915e+03
   -9.71356e+03
   -9.71955e+03
   -9.72280e+03
   -9.72202e+03
   -9.72036e+03
   -9.72876e+03
   -9.72275e+03
   -9.72068e+03
   -9.71793e+03
   -9.71945e+03
   -9.72875e+03
   -9.72036e+03
   -9.72642e+03
   -9.71273e+03
   -9.70983e+03
   -9.70771e+03
   -9.71021e+03
   -9.71556e+03
   -9.70932e+03
   -9.70909e+03
   -9.71009e+03
   -9.71309e+03
   -9.70960e+03
   -9.71362e+03
   -9.71277e+03
   -9.71968e+03
   -9.71266e+03
   -9.70879e+03
   -9.71185e+03
   -9.71545e+03
   -9.71222e+03
   -9.71661e+03
   -9.71664e+03
   -9.71778e+03
   -9.71105e+03
   -9.72929e+03
   -9.73216e+03
   -9.72328e+03
   -9.72369e+03
   -9.73235e+03
   -9.72391e+03
   -9.72492e+03
   -9.72424e+03
   -9.72656e+03
   -9.72628e+03
   -9.72249e+03
   -9.71723e+03
   -9.72505e+03
   -9.71491e+03
   -9.72197e+03
   -9.72200e+03
   -9.72536e+03
   -9.72911e+03
   -9.71739e+03
   -9.71641e+03
   -9.71083e+03
   -9.71207e+03
   -9.71204e+03
   -9.72159e+03
   -9.71621e+03
   -9.72762e+03
   -9.72511e+03
   -9.72486e+03
   -9.72897e+03
   -9.72350e+03
   -9.72974e+03
   -9.73422e+03
   -9.72530e+03
   -9.73023e+03
   -9.72204e+03
   -9.72701e+03
   -9.72545e+03
   -9.72484e+03
   -9.73049e+03
   -9.73059e+03
   -9.72805e+03
   -9.73751e+03
   -9.73069e+03
   -9.72833e+03
   -9.72843e+03
   -9.73315e+03
   -9.73429e+03
   -9.72734e+03
   -9.72240e+03
   -9.72388e+03
   -9.72194e+03
   -9.72231e+03
   -9.72311e+03
   -9.72136e+03
   -9.71947e+03
   -9.71654e+03
   -9.71549e+03
   -9.72041e+03
   -9.72331e+03
   -9.71926e+03
   -9.72100e+03
   -9.72140e+03
   -9.73004e+03
   -9.72087e+03
   -9.72598e+03
   -9.72999e+03
   -9.72773e+03
   -9.72319e+03
   -9.71476e+03
   -9.72508e+03
   -9.72481e+03
   -9.72144e+03
   -9.72025e+03
   -9.72368e+03
   -9.72285e+03
   -9.72702e+03
   -9.72525e+03
   -9.73030e+03
   -9.73277e+03
   -9.72445e+03
   -9.72401e+03
   -9.72425e+03
   -9.72888e+03
   -9.73513e+03
   -9.73235e+03
   -9.72072e+03
   -9.71891e+03
   -9.71867e+03
   -9.72619e+03
   -9.72996e+03
   -9.72372e+03
   -9.72577e+03
   -9.73017e+03
   -9.72969e+03
   -9.73393e+03
   -9.72947e+03
   -9.72592e+03
   -9.72545e+03
   -9.72338e+03
   -9.72302e+03
   -9.73103e+03
   -9.73064e+03
   -9.73108e+03
   -9.72807e+03
   -9.72851e+03
   -9.73127e+03
   -9.73390e+03
   -9.73047e+03
   -9.73435e+03
   -9.73267e+03
   -9.73107e+03
   -9.72713e+03
   -9.72516e+03
   -9.72787e+03
   -9.72360e+03
   -9.72102e+03
   -9.72152e+03
   -9.72543e+03
   -9.73214e+03
   -9.72626e+03
   -9.72484e+03
   -9.72236e+03
   -9.72766e+03
   -9.72648e+03
   -9.72052e+03
   -9.72410e+03
   -9.71680e+03
   -9.71720e+03
   -9.71975e+03
   -9.72335e+03
   -9.72178e+03
   -9.71975e+03
   -9.72588e+03
   -9.72299e+03
   -9.72221e+03
   -9.71901e+03
   -9.72235e+03
   -9.72713e+03
   -9.72740e+03
   -9.72690e+03
   -9.72264e+03
   -9.72594e+03
   -9.72182e+03
   -9.71697e+03
   -9.71351e+03
   -9.72350e+03
   -9.72628e+03
   -9.72869e+03
   -9.72508e+03
   -9.71998e+03
   -9.71650e+03
   -9.71871e+03
   -9.72052e+03
   -9.71628e+03
   -9.71942e+03
   -9.72392e+03
   -9.72466e+03
   -9.72199e+03
   -9.71950e+03
   -9.71921e+03
   -9.71756e+03
   -9.72388e+03
   -9.72301e+03
   -9.72647e+03
   -9.72845e+03
   -9.73034e+03
   -9.73027e+03
   -9.73028e+03
   -9.72931e+03
   -9.72523e+03
   -9.72845e+03
   -9.73262e+03
   -9.73379e+03
   -9.73531e+03
   -9.73362e+03
   -9.73638e+03
   -9.74246e+03
   -9.74528e+03
   -9.74743e+03
   -9.73892e+03
   -9.73103e+03
   -9.73360e+03
   -9.73639e+03
   -9.73839e+03
   -9.73234e+03
   -9.73285e+03
   -9.73732e+03
   -9.73921e+03
   -9.73688e+03
   -9.73672e+03
   -9.73983e+03
   -9.73634e+03
   -9.73704e+03
   -9.73967e+03
   -9.73644e+03
   -9.73020e+03
   -9.73761e+03
   -9.73697e+03
   -9.73140e+03
   -9.72853e+03
   -9.73425e+03
   -9.73289e+03
   -9.73549e+03
   -9.73277e+03
   -9.73251e+03
   -9.73387e+03
   -9.73250e+03
   -9.72951e+03
   -9.73096e+03
   -9.72749e+03
   -9.72734e+03
   -9.72604e+03
   -9.73661e+03
   -9.73249e+03
   -9.73696e+03
   -9.73803e+03
   -9.73644e+03
   -9.72530e+03
   -9.72345e+03
   -9.72170e+03
   -9.72794e+03
   -9.73313e+03
   -9.72941e+03
   -9.72611e+03
   -9.72598e+03
   -9.72273e+03
   -9.72469e+03
   -9.72504e+03
   -9.72737e+03
   -9.72284e+03
   -9.72304e+03
   -9.72735e+03
   -9.72687e+03
   -9.72303e+03
   -9.72414e+03
   -9.72894e+03
   -9.73021e+03
   -9.73305e+03
   -9.73350e+03
   -9.73162e+03
   -9.72730e+03
   -9.73007e+03
   -9.73004e+03
   -9.73554e+03
   -9.73232e+03
   -9.72270e+03
   -9.73239e+03
   -9.71744e+03
   -9.71928e+03
   -9.71726e+03
   -9.72189e+03
   -9.72484e+03
   -9.72390e+03
   -9.72790e+03
   -9.73185e+03
   -9.72522e+03
   -9.72323e+03
   -9.72564e+03
   -9.72671e+03
   -9.72891e+03
   -9.72165e+03
   -9.72113e+03
   -9.72115e+03
   -9.72804e+03
   -9.73344e+03
   -9.73632e+03
   -9.72570e+03
   -9.72644e+03
   -9.72884e+03
   -9.73382e+03
   -9.72488e+03
   -9.72669e+03
   -9.72741e+03
   -9.72471e+03
   -9.72713e+03
   -9.73702e+03
   -9.73435e+03
   -9.73817e+03
   -9.72713e+03
   -9.72685e+03
   -9.72929e+03
   -9.73293e+03
   -9.72974e+03
   -9.72902e+03
   -9.72606e+03
   -9.72680e+03
   -9.72815e+03
   -9.72131e+03
   -9.73015e+03
   -9.72715e+03
   -9.73293e+03
   -9.73430e+03
   -9.73580e+03
   -9.72539e+03
   -9.73227e+03
   -9.73167e+03
   -9.73473e+03
   -9.72853e+03
   -9.72598e+03
   -9.73105e+03
   -9.73868e+03
   -9.73844e+03
   -9.73850e+03
   -9.72910e+03
   -9.72084e+03
   -9.71994e+03
   -9.71967e+03
   -9.71617e+03
   -9.71953e+03
   -9.71467e+03
   -9.71660e+03
   -9.72280e+03
   -9.72954e+03
   -9.73286e+03
   -9.72578e+03
   -9.72071e+03
   -9.71888e+03
   -9.72284e+03
   -9.71731e+03
   -9.72450e+03
   -9.72054e+03
   -9.72222e+03
   -9.73014e+03
   -9.73097e+03
   -9.72662e+03
   -9.73380e+03
   -9.72013e+03
   -9.72685e+03
   -9.72325e+03
   -9.72733e+03
   -9.72350e+03
   -9.72442e+03
   -9.72866e+03
   -9.72596e+03
   -9.72929e+03
   -9.72394e+03
   -9.72151e+03
   -9.72744e+03
   -9.72623e+03
   -9.72670e+03
   -9.72671e+03
   -9.73141e+03
   -9.72770e+03
   -9.72836e+03
   -9.73234e+03
   -9.72952e+03
   -9.73261e+03
   -9.73899e+03
   -9.73714e+03
   -9.73216e+03
   -9.73586e+03
   -9.73152e+03
   -9.73039e+03
   -9.73301e+03
   -9.73374e+03
   -9.72964e+03
   -9.72348e+03
   -9.72658e+03
   -9.73279e+03
   -9.73597e+03
   -9.73341e+03
   -9.73510e+03
   -9.73506e+03
   -9.73146e+03
   -9.73497e+03
   -9.73192e+03
   -9.72815e+03
   -9.72807e+03
   -9.73254e+03
   -9.73536e+03
   -9.72889e+03
   -9.73541e+03
   -9.74229e+03
   -9.74237e+03
   -9.73623e+03
   -9.73451e+03
   -9.73940e+03
   -9.72829e+03
   -9.72904e+03
   -9.72189e+03
   -9.73168e+03
   -9.73759e+03
   -9.73127e+03
   -9.72954e+03
   -9.74137e+03
   -9.73777e+03
   -9.72755e+03
   -9.73441e+03
   -9.73319e+03
   -9.73538e+03
   -9.73258e+03
   -9.72819e+03
   -9.72461e+03
   -9.72221e+03
   -9.72202e+03
   -9.72455e+03
   -9.73107e+03
   -9.72819e+03
   -9.72806e+03
   -9.73559e+03
   -9.73722e+03
   -9.73135e+03
   -9.73253e+03
   -9.73300e+03
   -9.74112e+03
   -9.73435e+03
   -9.74535e+03
   -9.74038e+03
   -9.73636e+03
   -9.73567e+03
   -9.73361e+03
   -9.73530e+03
   -9.73582e+03
   -9.73452e+03
   -9.72850e+03
   -9.73370e+03
   -9.73178e+03
   -9.73534e+03
   -9.74620e+03
   -9.74030e+03
   -9.73892e+03
   -9.73310e+03
   -9.72914e+03
   -9.73181e+03
   -9.73419e+03
   -9.73518e+03
   -9.73464e+03
   -9.73547e+03
   -9.73192e+03
   -9.72807e+03
   -9.72539e+03
   -9.72191e+03
   -9.72701e+03
   -9.73757e+03
   -9.73767e+03
   -9.73527e+03
   -9.73746e+03
   -9.73677e+03
   -9.73819e+03
   -9.73713e+03
   -9.73920e+03
   -9.73690e+03
   -9.72991e+03
   -9.72868e+03
   -9.73350e+03
   -9.74390e+03
   -9.74224e+03
   -9.74065e+03
   -9.74492e+03
   -9.74645e+03
   -9.74484e+03
   -9.74089e+03
   -9.73563e+03
   -9.74112e+03
   -9.73624e+03
   -9.73832e+03
   -9.74798e+03
   -9.73480e+03
   -9.74163e+03
   -9.74565e+03
   -9.75033e+03
   -9.74835e+03
   -9.74155e+03
   -9.73857e+03
   -9.74190e+03
   -9.73603e+03
   -9.74626e+03
   -9.74120e+03
   -9.74161e+03
   -9.74338e+03
   -9.74845e+03
   -9.74902e+03
   -9.73936e+03
   -9.74451e+03
   -9.73539e+03
   -9.73252e+03
   -9.73552e+03
   -9.74215e+03
   -9.74458e+03
   -9.74186e+03
   -9.73632e+03
   -9.74076e+03
   -9.74147e+03
   -9.73591e+03
   -9.72821e+03
   -9.73144e+03
   -9.73626e+03
   -9.73073e+03
   -9.73042e+03
   -9.73050e+03
   -9.73159e+03
   -9.72685e+03
   -9.72047e+03
   -9.72164e+03
   -9.72290e+03
   -9.72079e+03
   -9.72165e+03
   -9.71952e+03
   -9.72147e+03
   -9.73089e+03
   -9.73629e+03
   -9.73293e+03
   -9.72906e+03
   -9.72770e+03
   -9.72740e+03
   -9.72479e+03
   -9.73112e+03
   -9.72132e+03
   -9.72751e+03
   -9.72128e+03
   -9.72372e+03
   -9.73355e+03
   -9.73119e+03
   -9.72695e+03
   -9.72030e+03
   -9.72265e+03
   -9.71576e+03
   -9.72495e+03
   -9.72450e+03
   -9.72347e+03
   -9.72504e+03
   -9.73069e+03
   -9.73408e+03
   -9.72977e+03
   -9.72423e+03
   -9.72698e+03
   -9.72757e+03
   -9.72901e+03
   -9.72382e+03
   -9.73402e+03
   -9.73341e+03
   -9.73283e+03
   -9.73154e+03
   -9.72839e+03
   -9.72288e+03
   -9.72292e+03
   -9.72773e+03
   -9.72811e+03
   -9.71984e+03
   -9.72288e+03
   -9.72646e+03
   -9.72938e+03
   -9.72269e+03
   -9.72032e+03
   -9.72787e+03
   -9.72556e+03
   -9.73468e+03
   -9.73428e+03
   -9.73665e+03
   -9.73446e+03
   -9.73257e+03
   -9.73232e+03
   -9.73024e+03
   -9.73186e+03
   -9.72865e+03
   -9.72573e+03
